<?xml version="1.0" encoding="UTF-8"?>
<!DOCTYPE svg PUBLIC "-//W3C//DTD SVG 1.1//EN" "http://www.w3.org/Graphics/SVG/1.1/DTD/svg11.dtd">
<!-- Creator: CorelDRAW 2020 (64-Bit) -->
<svg xmlns="http://www.w3.org/2000/svg" xml:space="preserve" width="291px" height="95px" version="1.1" style="shape-rendering:geometricPrecision; text-rendering:geometricPrecision; image-rendering:optimizeQuality; fill-rule:evenodd; clip-rule:evenodd"
viewBox="0 0 40.28 13.19"
 xmlns:xlink="http://www.w3.org/1999/xlink"
 xmlns:xodm="http://www.corel.com/coreldraw/odm/2003">
 <defs>
  <style type="text/css">
   <![CDATA[
    .str0 {stroke:#223633;stroke-width:0.55;stroke-miterlimit:22.9256}
    .fil2 {fill:none}
    .fil1 {fill:#223633}
    .fil0 {fill:#FEFEFE;fill-rule:nonzero}
   ]]>
  </style>
 </defs>
 <g id="Livello_x0020_1">
  <metadata id="CorelCorpID_0Corel-Layer"/>
  <path class="fil0" d="M13.89 10.16c-0.05,-0.02 -0.09,-0.06 -0.12,-0.1 -0.04,-0.05 -0.06,-0.11 -0.06,-0.17 0,-0.08 0.03,-0.14 0.08,-0.19 0.06,-0.05 0.12,-0.08 0.21,-0.08 0.02,0 0.05,0 0.09,0.01 0.1,0.05 0.24,0.09 0.41,0.13 0.17,0.04 0.35,0.06 0.56,0.06 0.09,0 0.17,-0.01 0.26,-0.04 0.08,-0.02 0.16,-0.06 0.23,-0.1 0.06,-0.04 0.12,-0.1 0.16,-0.16 0.04,-0.06 0.06,-0.12 0.06,-0.19 0,-0.12 -0.06,-0.22 -0.16,-0.3 -0.1,-0.08 -0.23,-0.14 -0.39,-0.2 -0.16,-0.06 -0.33,-0.12 -0.51,-0.18 -0.19,-0.06 -0.36,-0.14 -0.51,-0.24 -0.16,-0.09 -0.29,-0.21 -0.39,-0.36 -0.11,-0.15 -0.16,-0.34 -0.16,-0.57 0,-0.35 0.12,-0.62 0.35,-0.81 0.23,-0.19 0.57,-0.28 1.02,-0.28 0.18,0 0.36,0.02 0.53,0.06 0.18,0.05 0.33,0.09 0.45,0.14 0.06,0.02 0.1,0.06 0.13,0.1 0.04,0.05 0.06,0.11 0.06,0.17 0,0.08 -0.03,0.15 -0.09,0.2 -0.05,0.06 -0.12,0.09 -0.21,0.09 -0.02,0 -0.05,-0.01 -0.09,-0.02 -0.11,-0.03 -0.23,-0.06 -0.37,-0.09 -0.15,-0.04 -0.27,-0.05 -0.39,-0.05 -0.18,0 -0.32,0.02 -0.41,0.07 -0.1,0.04 -0.17,0.1 -0.22,0.16 -0.04,0.06 -0.07,0.11 -0.08,0.17 -0.01,0.06 -0.02,0.1 -0.02,0.13 0,0.13 0.06,0.24 0.16,0.32 0.1,0.09 0.23,0.16 0.39,0.23 0.16,0.06 0.33,0.12 0.51,0.19 0.19,0.06 0.36,0.13 0.51,0.23 0.16,0.09 0.29,0.21 0.39,0.35 0.11,0.14 0.16,0.32 0.16,0.55 0,0.15 -0.04,0.29 -0.13,0.42 -0.08,0.12 -0.19,0.23 -0.32,0.31 -0.12,0.09 -0.26,0.16 -0.42,0.2 -0.15,0.05 -0.3,0.07 -0.44,0.07 -0.21,0 -0.42,-0.01 -0.62,-0.04 -0.2,-0.03 -0.4,-0.09 -0.61,-0.19z"/>
  <path id="1" class="fil0" d="M19.61 8.74l-1.74 0 0 1.29c0,0.09 -0.04,0.17 -0.1,0.23 -0.07,0.07 -0.14,0.1 -0.24,0.1 -0.09,0 -0.17,-0.03 -0.23,-0.1 -0.07,-0.06 -0.1,-0.14 -0.1,-0.23l0 -3.26c0,-0.1 0.03,-0.17 0.1,-0.24 0.06,-0.06 0.14,-0.1 0.23,-0.1 0.1,0 0.17,0.04 0.24,0.1 0.06,0.07 0.1,0.14 0.1,0.24l0 1.4 1.74 0 0 -1.4c0,-0.1 0.03,-0.17 0.09,-0.24 0.07,-0.06 0.15,-0.1 0.24,-0.1 0.09,0 0.17,0.04 0.23,0.1 0.07,0.07 0.1,0.14 0.1,0.24l0 3.26c0,0.09 -0.03,0.17 -0.1,0.23 -0.06,0.07 -0.14,0.1 -0.23,0.1 -0.09,0 -0.17,-0.03 -0.24,-0.1 -0.06,-0.06 -0.09,-0.14 -0.09,-0.23l0 -1.29z"/>
  <path id="2" class="fil0" d="M22.82 6.43c0.05,0 0.08,0.02 0.12,0.04 0.03,0.02 0.05,0.05 0.07,0.09l1.7 3.32c0.03,0.05 0.04,0.09 0.04,0.14 0,0.09 -0.03,0.17 -0.1,0.24 -0.06,0.07 -0.14,0.1 -0.23,0.1 -0.14,0 -0.23,-0.06 -0.29,-0.18l-0.38 -0.7 -1.86 0 -0.38 0.7c-0.06,0.12 -0.16,0.18 -0.29,0.18 -0.1,0 -0.17,-0.03 -0.23,-0.1 -0.07,-0.07 -0.1,-0.15 -0.1,-0.24 0,-0.05 0.01,-0.09 0.04,-0.14l1.7 -3.32c0.02,-0.04 0.04,-0.07 0.07,-0.09 0.03,-0.02 0.07,-0.04 0.12,-0.04zm-0.62 2.48l1.24 0 -0.62 -1.15 -0.62 1.15z"/>
  <path id="3" class="fil0" d="M27.16 8.27c0.15,0 0.27,-0.06 0.38,-0.17 0.1,-0.1 0.15,-0.25 0.15,-0.44 0,-0.19 -0.05,-0.34 -0.15,-0.45 -0.11,-0.12 -0.23,-0.17 -0.38,-0.17l-1.13 0 0 1.23 1.13 0zm-0.33 0.6l-0.8 0 0 1.16c0,0.09 -0.03,0.17 -0.09,0.23 -0.07,0.07 -0.15,0.1 -0.24,0.1 -0.09,0 -0.17,-0.03 -0.23,-0.1 -0.07,-0.06 -0.1,-0.14 -0.1,-0.23l0 -3.26c0,-0.1 0.03,-0.17 0.1,-0.24 0.06,-0.06 0.14,-0.1 0.23,-0.1l1.51 0c0.16,0 0.31,0.03 0.45,0.09 0.14,0.06 0.26,0.15 0.37,0.26 0.1,0.11 0.18,0.23 0.24,0.38 0.06,0.15 0.09,0.32 0.09,0.49 0,0.26 -0.07,0.5 -0.22,0.7 -0.14,0.21 -0.33,0.36 -0.55,0.46l0.51 1.02c0.01,0.03 0.02,0.06 0.03,0.09 0.01,0.02 0.02,0.06 0.02,0.09 0,0.1 -0.04,0.18 -0.1,0.25 -0.07,0.07 -0.15,0.1 -0.26,0.1 -0.06,0 -0.13,-0.02 -0.18,-0.05 -0.05,-0.04 -0.09,-0.08 -0.12,-0.14l-0.66 -1.3z"/>
  <path id="4" class="fil0" d="M29.78 8.74l0 1.03 1.79 0c0.09,0 0.16,0.02 0.21,0.08 0.06,0.06 0.09,0.13 0.09,0.21 0,0.09 -0.03,0.16 -0.09,0.21 -0.05,0.06 -0.12,0.09 -0.21,0.09l-2.15 0c-0.08,0 -0.16,-0.03 -0.21,-0.09 -0.06,-0.05 -0.09,-0.12 -0.09,-0.21l0 -3.33c0,-0.08 0.03,-0.15 0.09,-0.21 0.05,-0.06 0.13,-0.09 0.21,-0.09l2.15 0c0.09,0 0.16,0.03 0.21,0.09 0.06,0.06 0.09,0.13 0.09,0.21 0,0.08 -0.03,0.16 -0.09,0.21 -0.05,0.06 -0.12,0.09 -0.21,0.09l-1.79 0 0 1.14 1.32 0c0.09,0 0.16,0.03 0.21,0.08 0.06,0.06 0.08,0.13 0.08,0.21 0,0.08 -0.02,0.14 -0.08,0.2 -0.05,0.06 -0.12,0.08 -0.21,0.08l-1.32 0z"/>
  <path id="5" class="fil0" d="M34.65 5.74c0,-0.14 0.05,-0.27 0.16,-0.38 0.1,-0.11 0.23,-0.17 0.37,-0.17 0.15,0 0.28,0.06 0.39,0.17 0.11,0.11 0.16,0.24 0.16,0.38 0,0.15 -0.05,0.28 -0.16,0.38 -0.11,0.11 -0.24,0.16 -0.39,0.16 -0.14,0 -0.27,-0.05 -0.37,-0.16 -0.11,-0.1 -0.16,-0.23 -0.16,-0.38zm0.08 1.38c0,-0.13 0.04,-0.23 0.13,-0.32 0.08,-0.08 0.19,-0.13 0.31,-0.13 0.12,0 0.23,0.05 0.31,0.13 0.09,0.09 0.13,0.19 0.13,0.32l0 2.8c0,0.12 -0.04,0.22 -0.13,0.31 -0.08,0.09 -0.19,0.13 -0.31,0.13 -0.12,0 -0.23,-0.04 -0.31,-0.13 -0.09,-0.09 -0.13,-0.19 -0.13,-0.31l0 -2.8z"/>
  <path id="6" class="fil0" d="M37.96 5.92l-1.04 0c-0.1,0 -0.19,-0.04 -0.27,-0.12 -0.08,-0.07 -0.12,-0.16 -0.12,-0.27 0,-0.11 0.04,-0.2 0.12,-0.28 0.08,-0.08 0.17,-0.12 0.27,-0.12l2.97 0c0.1,0 0.19,0.04 0.27,0.12 0.08,0.08 0.12,0.17 0.12,0.28 0,0.11 -0.04,0.2 -0.12,0.27 -0.08,0.08 -0.17,0.12 -0.27,0.12l-1.04 0 0 4c0,0.12 -0.05,0.22 -0.13,0.31 -0.09,0.09 -0.19,0.13 -0.32,0.13 -0.12,0 -0.22,-0.04 -0.31,-0.13 -0.08,-0.09 -0.13,-0.19 -0.13,-0.31l0 -4z"/>
  <circle class="fil1" cx="5.69" cy="10.74" r="2.45"/>
  <circle class="fil1" cx="11.21" cy="2.45" r="2.45"/>
  <circle class="fil1" cx="2.45" cy="3.92" r="2.45"/>
  <line class="fil2 str0" x1="5.69" y1="10.74" x2="11.21" y2= "2.45" />
  <line class="fil2 str0" x1="1.39" y1="4.09" x2="11.21" y2= "2.45" />
 </g>
</svg>
